{
	"content": [
		{
			"id": "7baf2775d4a2",
			"usableAreas": 70,
			"listingType": "USED",
			"createdAt": "2017-04-22T18:39:31.138+0000",
			"listingStatus": "ACTIVE",
			"parkingSpaces": 1,
			"updatedAt": "2017-04-22T18:39:31.138+0000",
			"owner": false,
			"images": [
				"https://resizedimgs.vivareal.com/crop/400x300/vr.images.sp/f908948bf1d9e53d36c4734d296feb99.jpg",
				"https://resizedimgs.vivareal.com/crop/400x300/vr.images.sp/bd37e4c09ddd370529489fbbc461dbec.jpg",
				"https://resizedimgs.vivareal.com/crop/400x300/vr.images.sp/7b86204f34b751c432c878d607c9d618.jpg",
				"https://resizedimgs.vivareal.com/crop/400x300/vr.images.sp/3b1142cffc13c49a1e7ea766c20a1d52.jpg",
				"https://resizedimgs.vivareal.com/crop/400x300/vr.images.sp/f519a27d56696febfb77f6398f4484d8.jpg"
			],
			"address": {
				"city": "",
				"neighborhood": "",
				"geoLocation": {
					"precision": "NO_GEOCODE",
					"location": {
						"lon": 0.0,
						"lat": 0.0
					}
				}
			},
			"bathrooms": 1,
			"bedrooms": 2,
			"pricingInfos": {
				"period": null,
				"yearlyIptu": 60,
				"price": 276000,
				"rentalTotalPrice": 0,
				"businessType": "SALE",
				"monthlyCondoFee": 0
			}
		}
	],
	"pageable": {
		"sort": {
			"sorted": false,
			"unsorted": true
		},
		"offset": 0,
		"pageNumber": 0,
		"pageSize": 1,
		"paged": true,
		"unpaged": false
	},
	"last": false,
	"totalPages": 10000,
	"totalElements": 10000,
	"size": 1,
	"number": 0,
	"sort": {
		"sorted": false,
		"unsorted": true
	},
	"numberOfElements": 1,
	"first": true
}